<?xml version="1.0" encoding="UTF-8"?>
<svg width="9px" height="12px" viewBox="0 0 9 12" version="1.1" xmlns="http://www.w3.org/2000/svg" xmlns:xlink="http://www.w3.org/1999/xlink">
    <!-- Generator: sketchtool 50 (54983) - http://www.bohemiancoding.com/sketch -->
    <title>91E40428-74A0-497F-84AC-ED8657F02BEB</title>
    <desc>Created with sketchtool.</desc>
    <defs></defs>
    <g id="Symbols" stroke="none" stroke-width="1" fill="none" fill-rule="evenodd">
        <g id="header__768" transform="translate(-231.000000, -24.000000)" fill="#fff">
            <g id="Group-Copy" transform="translate(164.000000, 23.000000)">
                <path d="M68.83,4.86 C69.0800012,3.70999425 69.5574965,2.84750287 70.2625,2.2725 C70.9675035,1.69749712 71.8699945,1.41 72.97,1.41 C73.4100022,1.41 73.7824985,1.4399997 74.0875,1.5 C74.3925015,1.5600003 74.6999984,1.64499945 75.01,1.755 L74.62,3.225 C74.3799988,3.13499955 74.1275013,3.06250027 73.8625,3.0075 C73.5974987,2.95249972 73.2950017,2.925 72.955,2.925 C72.2749966,2.925 71.7525018,3.09749827 71.3875,3.4425 C71.0224982,3.78750172 70.7700007,4.259997 70.63,4.86 L74.035,4.86 L73.795,6.135 L70.45,6.135 C70.44,6.2550006 70.435,6.36749947 70.435,6.4725 L70.435,7.08 C70.435,7.17000045 70.44,7.26999945 70.45,7.38 L73.555,7.38 L73.3,8.67 L70.615,8.67 C70.7750008,9.4100037 71.052498,9.92749852 71.4475,10.2225 C71.842502,10.5175015 72.334997,10.665 72.925,10.665 C73.3050019,10.665 73.6549984,10.6300003 73.975,10.56 C74.2950016,10.4899996 74.5999985,10.3900006 74.89,10.26 L75.265,11.715 C75.0349988,11.8250005 74.7100021,11.9324995 74.29,12.0375 C73.8699979,12.1425005 73.3900027,12.195 72.85,12.195 C71.639994,12.195 70.7100032,11.8850031 70.06,11.265 C69.4099968,10.6449969 68.985001,9.78000555 68.785,8.67 L67.57,8.67 L67.57,7.38 L68.665,7.38 C68.655,7.26999945 68.65,7.17000045 68.65,7.08 L68.65,6.465 C68.65,6.35499945 68.655,6.24500055 68.665,6.135 L67.57,6.135 L67.57,4.86 L68.83,4.86 Z" id="€"></path>
            </g>
        </g>
    </g>
</svg>
