<svg xmlns="http://www.w3.org/2000/svg" width="10" height="16" viewBox="0 0 10 16">
    <path fill="#F5B44A" fill-rule="nonzero" d="M4.18 11.27c-1.29-.13-2.455-.435-3.451-1.184C.605 9.993.477 9.903.364 9.8c-.436-.402-.48-.863-.135-1.339.296-.406.791-.515 1.307-.281.1.045.194.101.285.162 1.858 1.226 4.41 1.26 6.274.055.184-.136.382-.247.61-.304.446-.11.86.048 1.1.422.272.427.269.844-.068 1.175-.515.509-1.135.877-1.824 1.133-.652.243-1.365.365-2.071.446.106.112.157.166.223.23.96.926 1.922 1.848 2.878 2.777.326.316.394.708.214 1.076-.196.403-.634.667-1.065.639-.272-.018-.485-.149-.674-.331-.724-.7-1.46-1.387-2.17-2.1-.206-.207-.305-.168-.487.012-.728.72-1.468 1.43-2.213 2.134-.334.317-.731.374-1.119.193-.412-.192-.674-.596-.654-1.002.014-.274.155-.484.35-.672.95-.91 1.896-1.824 2.843-2.736.063-.06.121-.125.212-.218zm.787-3.171C2.664 8.09.775 6.257.788 4.04.802 1.8 2.691-.006 5.018 0c2.33.006 4.2 1.838 4.189 4.102-.012 2.212-1.914 4.004-4.24 3.997zM7.06 4.046c-.004-1.1-.916-1.977-2.06-1.978-1.152-.001-2.073.891-2.064 2.001.009 1.097.929 1.967 2.075 1.963 1.143-.004 2.053-.886 2.049-1.986z"/>
</svg>
